<?xml version="1.0" encoding="UTF-8" standalone="no"?>
<!-- Created with Inkscape (http://www.inkscape.org/) -->

<svg
   xmlns:dc="http://purl.org/dc/elements/1.1/"
   xmlns:cc="http://creativecommons.org/ns#"
   xmlns:rdf="http://www.w3.org/1999/02/22-rdf-syntax-ns#"
   xmlns:svg="http://www.w3.org/2000/svg"
   xmlns="http://www.w3.org/2000/svg"
   xmlns:xlink="http://www.w3.org/1999/xlink"
   xmlns:sodipodi="http://sodipodi.sourceforge.net/DTD/sodipodi-0.dtd"
   xmlns:inkscape="http://www.inkscape.org/namespaces/inkscape"
   version="1.0"
   width="300"
   height="240"
   id="svg2108"
   inkscape:version="0.48.1 r9760"
   sodipodi:docname="masthead-showcase.01.svg"
   inkscape:export-filename="/tmp/showcase.png"
   inkscape:export-xdpi="90"
   inkscape:export-ydpi="90">
  <metadata
     id="metadata21166">
    <rdf:RDF>
      <cc:Work
         rdf:about="">
        <dc:format>image/svg+xml</dc:format>
        <dc:type
           rdf:resource="http://purl.org/dc/dcmitype/StillImage" />
        <dc:title />
      </cc:Work>
    </rdf:RDF>
  </metadata>
  <sodipodi:namedview
     pagecolor="#ffffff"
     bordercolor="#666666"
     borderopacity="1"
     objecttolerance="10"
     gridtolerance="10"
     guidetolerance="10"
     inkscape:pageopacity="0"
     inkscape:pageshadow="2"
     inkscape:window-width="1366"
     inkscape:window-height="720"
     id="namedview21164"
     showgrid="false"
     inkscape:zoom="1"
     inkscape:cx="236.67304"
     inkscape:cy="163.93439"
     inkscape:window-x="0"
     inkscape:window-y="0"
     inkscape:window-maximized="1"
     inkscape:current-layer="g18005" />
  <defs
     id="defs3">
    <linearGradient
       id="linearGradient4356">
      <stop
         id="stop4358"
         style="stop-color:#000000;stop-opacity:1"
         offset="0" />
      <stop
         id="stop4360"
         style="stop-color:#000000;stop-opacity:0"
         offset="1" />
    </linearGradient>
    <linearGradient
       id="linearGradient4163">
      <stop
         id="stop4165"
         style="stop-color:#3b74bc;stop-opacity:1"
         offset="0" />
      <stop
         id="stop4167"
         style="stop-color:#2d5990;stop-opacity:1"
         offset="1" />
    </linearGradient>
    <linearGradient
       id="linearGradient3824">
      <stop
         id="stop3826"
         style="stop-color:#ffffff;stop-opacity:1"
         offset="0" />
      <stop
         id="stop3828"
         style="stop-color:#c9c9c9;stop-opacity:1"
         offset="1" />
    </linearGradient>
    <linearGradient
       id="linearGradient3816">
      <stop
         id="stop3818"
         style="stop-color:#000000;stop-opacity:1"
         offset="0" />
      <stop
         id="stop3820"
         style="stop-color:#000000;stop-opacity:0"
         offset="1" />
    </linearGradient>
    <linearGradient
       id="linearGradient3800">
      <stop
         id="stop3802"
         style="stop-color:#f4d9b1;stop-opacity:1"
         offset="0" />
      <stop
         id="stop3804"
         style="stop-color:#df9725;stop-opacity:1"
         offset="1" />
    </linearGradient>
    <radialGradient
       cx="31.112698"
       cy="19.008621"
       r="8.6620579"
       fx="31.112698"
       fy="19.008621"
       id="radialGradient2499"
       xlink:href="#linearGradient3816"
       gradientUnits="userSpaceOnUse" />
    <linearGradient
       x1="20.661695"
       y1="35.817974"
       x2="22.626925"
       y2="36.217758"
       id="linearGradient2501"
       xlink:href="#linearGradient4356"
       gradientUnits="userSpaceOnUse"
       gradientTransform="matrix(2.8512357,0.5265033,-0.5265033,2.8512357,-32.043584,-34.478579)" />
    <linearGradient
       x1="30.935921"
       y1="29.553486"
       x2="30.935921"
       y2="35.803486"
       id="linearGradient2503"
       xlink:href="#linearGradient3824"
       gradientUnits="userSpaceOnUse"
       gradientTransform="matrix(2.8994389,0,0,2.8994389,-129.55196,15.415418)" />
    <linearGradient
       x1="22.686766"
       y1="36.3904"
       x2="21.408455"
       y2="35.739632"
       id="linearGradient2505"
       xlink:href="#linearGradient4356"
       gradientUnits="userSpaceOnUse"
       gradientTransform="matrix(-2.8347379,0.6090996,0.6090996,2.8347379,27.6662,3.4736145)" />
    <radialGradient
       cx="28.089741"
       cy="27.203083"
       r="13.56536"
       fx="28.089741"
       fy="27.203083"
       id="radialGradient2507"
       xlink:href="#linearGradient4163"
       gradientUnits="userSpaceOnUse"
       gradientTransform="matrix(3.7622075,0,0,2.5655134,-117.78202,50.036078)" />
    <linearGradient
       x1="30.935921"
       y1="29.553486"
       x2="30.935921"
       y2="35.803486"
       id="linearGradient2509"
       xlink:href="#linearGradient3824"
       gradientUnits="userSpaceOnUse"
       gradientTransform="matrix(2.8994389,0,0,2.8994389,-93.54705,35.71149)" />
    <radialGradient
       cx="31.112698"
       cy="19.008621"
       r="8.6620579"
       fx="31.112698"
       fy="19.008621"
       id="radialGradient2511"
       xlink:href="#linearGradient3816"
       gradientUnits="userSpaceOnUse" />
    <radialGradient
       cx="29.344931"
       cy="17.064077"
       r="9.1620579"
       fx="29.344931"
       fy="17.064077"
       id="radialGradient2513"
       xlink:href="#linearGradient3800"
       gradientUnits="userSpaceOnUse"
       gradientTransform="matrix(0.787998,0,0,0.787998,6.221198,3.617627)" />
    <linearGradient
       x1="20.661695"
       y1="35.817974"
       x2="22.626925"
       y2="36.217758"
       id="linearGradient2515"
       xlink:href="#linearGradient4356"
       gradientUnits="userSpaceOnUse"
       gradientTransform="matrix(2.8512357,0.5265033,-0.5265033,2.8512357,-75.47857,28.023726)" />
    <linearGradient
       x1="22.686766"
       y1="36.3904"
       x2="21.408455"
       y2="35.739632"
       id="linearGradient2517"
       xlink:href="#linearGradient4356"
       gradientUnits="userSpaceOnUse"
       gradientTransform="matrix(-2.8347379,0.6090996,0.6090996,2.8347379,66.23987,24.272598)" />
    <radialGradient
       cx="24.8125"
       cy="39.125"
       r="17.6875"
       fx="24.8125"
       fy="39.125"
       id="radialGradient2260"
       xlink:href="#linearGradient3041"
       gradientUnits="userSpaceOnUse"
       gradientTransform="matrix(1,0,0,0.374558,0,24.47041)" />
    <linearGradient
       x1="31.177404"
       y1="19.821514"
       x2="40.859177"
       y2="9.6568537"
       id="linearGradient2256"
       xlink:href="#linearGradient2250"
       gradientUnits="userSpaceOnUse" />
    <linearGradient
       x1="14.017542"
       y1="36.942543"
       x2="15.415793"
       y2="38.268368"
       id="linearGradient2271"
       xlink:href="#linearGradient2265"
       gradientUnits="userSpaceOnUse"
       gradientTransform="matrix(0.878099,-0.0173237,0.0173237,0.878099,2.163687,4.067899)" />
    <linearGradient
       x1="12.004697"
       y1="35.688461"
       x2="10.650805"
       y2="33.194965"
       id="linearGradient2263"
       xlink:href="#linearGradient2257"
       gradientUnits="userSpaceOnUse"
       gradientTransform="matrix(1.007254,-0.02636526,0.02636526,1.007254,1.593411,0.079191)" />
    <linearGradient
       x1="9.7503242"
       y1="32.28376"
       x2="16.915297"
       y2="39.443218"
       id="linearGradient3093"
       xlink:href="#linearGradient3087"
       gradientUnits="userSpaceOnUse"
       gradientTransform="matrix(0.87827,0,0,0.87827,2.536988,4.967681)" />
    <linearGradient
       x1="38.227654"
       y1="13.602527"
       x2="37.53537"
       y2="6.6285896"
       id="linearGradient3083"
       xlink:href="#linearGradient3077"
       gradientUnits="userSpaceOnUse"
       gradientTransform="matrix(0.87827,0,0,0.87827,2.847503,5.588712)" />
    <linearGradient
       x1="50.152931"
       y1="-3.6324477"
       x2="25.291086"
       y2="-4.3002653"
       id="linearGradient3067"
       xlink:href="#linearGradient3061"
       gradientUnits="userSpaceOnUse"
       gradientTransform="matrix(0.87827,0,0,0.87827,5.328299,1.650243)" />
    <linearGradient
       x1="19.648342"
       y1="42.253601"
       x2="20.631224"
       y2="6.7758031"
       id="linearGradient3055"
       xlink:href="#linearGradient3049"
       gradientUnits="userSpaceOnUse"
       gradientTransform="matrix(0.87827,0,0,0.87827,2.536988,4.967681)" />
    <radialGradient
       cx="24.8125"
       cy="39.125"
       r="17.6875"
       fx="24.8125"
       fy="39.125"
       id="radialGradient3047"
       xlink:href="#linearGradient3041"
       gradientUnits="userSpaceOnUse"
       gradientTransform="matrix(1,0,0,0.374558,0,24.47041)" />
    <linearGradient
       id="linearGradient3041">
      <stop
         id="stop3043"
         style="stop-color:#76b3ff;stop-opacity:1;"
         offset="0" />
      <stop
         id="stop3045"
         style="stop-color:#76b3ff;stop-opacity:0;"
         offset="1" />
    </linearGradient>
    <linearGradient
       id="linearGradient3049">
      <stop
         id="stop3051"
         style="stop-color:#b6b6b6;stop-opacity:1"
         offset="0" />
      <stop
         id="stop2262"
         style="stop-color:#f2f2f2;stop-opacity:1"
         offset="0.5" />
      <stop
         id="stop2264"
         style="stop-color:#fafafa;stop-opacity:1"
         offset="0.67612958" />
      <stop
         id="stop2268"
         style="stop-color:#d8d8d8;stop-opacity:1"
         offset="0.84051722" />
      <stop
         id="stop2266"
         style="stop-color:#f2f2f2;stop-opacity:1"
         offset="0.875" />
      <stop
         id="stop3053"
         style="stop-color:#dbdbdb;stop-opacity:1"
         offset="1" />
    </linearGradient>
    <linearGradient
       id="linearGradient3061">
      <stop
         id="stop3063"
         style="stop-color:#ffffff;stop-opacity:1"
         offset="0" />
      <stop
         id="stop3065"
         style="stop-color:#000000;stop-opacity:1"
         offset="1" />
    </linearGradient>
    <linearGradient
       id="linearGradient3077">
      <stop
         id="stop3079"
         style="stop-color:#dadada;stop-opacity:1;"
         offset="0" />
      <stop
         id="stop3081"
         style="stop-color:#ffffff;stop-opacity:1;"
         offset="1" />
    </linearGradient>
    <linearGradient
       id="linearGradient3087">
      <stop
         id="stop3089"
         style="stop-color:#ffe400;stop-opacity:1;"
         offset="0" />
      <stop
         id="stop3095"
         style="stop-color:#ffe400;stop-opacity:1;"
         offset="0" />
      <stop
         id="stop2242"
         style="stop-color:#ffec49;stop-opacity:1;"
         offset="0" />
      <stop
         id="stop2244"
         style="stop-color:#ffe400;stop-opacity:1;"
         offset="0.75" />
      <stop
         id="stop3091"
         style="stop-color:#e2d461;stop-opacity:1;"
         offset="1" />
    </linearGradient>
    <linearGradient
       id="linearGradient2257">
      <stop
         id="stop2259"
         style="stop-color:#ffffff;stop-opacity:1"
         offset="0" />
      <stop
         id="stop2261"
         style="stop-color:#ffffff;stop-opacity:0"
         offset="1" />
    </linearGradient>
    <linearGradient
       id="linearGradient2265">
      <stop
         id="stop2267"
         style="stop-color:#000000;stop-opacity:1"
         offset="0" />
      <stop
         id="stop2269"
         style="stop-color:#000000;stop-opacity:0"
         offset="1" />
    </linearGradient>
    <linearGradient
       id="linearGradient2250">
      <stop
         id="stop2252"
         style="stop-color:#ffffff;stop-opacity:1"
         offset="0" />
      <stop
         id="stop2254"
         style="stop-color:#ffffff;stop-opacity:0"
         offset="1" />
    </linearGradient>
    <radialGradient
       cx="31.112698"
       cy="19.008621"
       r="8.6620579"
       fx="31.112698"
       fy="19.008621"
       id="radialGradient4179"
       xlink:href="#linearGradient3816-7"
       gradientUnits="userSpaceOnUse" />
    <linearGradient
       id="linearGradient3816-7">
      <stop
         id="stop3818-1"
         style="stop-color:#76b3ff;stop-opacity:1;"
         offset="0" />
      <stop
         id="stop3820-8"
         style="stop-color:#76b3ff;stop-opacity:0;"
         offset="1" />
    </linearGradient>
    <linearGradient
       x1="22.686766"
       y1="36.3904"
       x2="21.408455"
       y2="35.739632"
       id="linearGradient2264"
       xlink:href="#linearGradient4356-8"
       gradientUnits="userSpaceOnUse"
       gradientTransform="matrix(-2.8347379,0.6090996,0.6090996,2.8347379,95.49672,-50.644748)" />
    <linearGradient
       id="linearGradient4356-8">
      <stop
         id="stop4358-7"
         style="stop-color:#000000;stop-opacity:1"
         offset="0" />
      <stop
         id="stop4360-4"
         style="stop-color:#000000;stop-opacity:0"
         offset="1" />
    </linearGradient>
    <radialGradient
       cx="28.089741"
       cy="27.203083"
       r="13.56536"
       fx="28.089741"
       fy="27.203083"
       id="radialGradient2261"
       xlink:href="#linearGradient4163-2"
       gradientUnits="userSpaceOnUse"
       gradientTransform="matrix(3.7622075,0,0,2.5655134,-49.9515,-4.0822851)" />
    <linearGradient
       id="linearGradient4163-2">
      <stop
         id="stop4165-2"
         style="stop-color:#3b74bc;stop-opacity:1"
         offset="0" />
      <stop
         id="stop4167-1"
         style="stop-color:#2d5990;stop-opacity:1"
         offset="1" />
    </linearGradient>
    <linearGradient
       x1="30.935921"
       y1="29.553486"
       x2="30.935921"
       y2="35.803486"
       id="linearGradient2258"
       xlink:href="#linearGradient3824-2"
       gradientUnits="userSpaceOnUse"
       gradientTransform="matrix(2.8994389,0,0,2.8994389,-24.655861,-16.285552)" />
    <linearGradient
       id="linearGradient3824-2">
      <stop
         id="stop3826-1"
         style="stop-color:#ffffff;stop-opacity:1"
         offset="0" />
      <stop
         id="stop3828-7"
         style="stop-color:#c9c9c9;stop-opacity:1"
         offset="1" />
    </linearGradient>
    <radialGradient
       cx="31.112698"
       cy="19.008621"
       r="8.6620579"
       fx="31.112698"
       fy="19.008621"
       id="radialGradient2237"
       xlink:href="#linearGradient3816-7"
       gradientUnits="userSpaceOnUse" />
    <linearGradient
       id="linearGradient26409">
      <stop
         id="stop26411"
         style="stop-color:#000000;stop-opacity:1"
         offset="0" />
      <stop
         id="stop26413"
         style="stop-color:#000000;stop-opacity:0"
         offset="1" />
    </linearGradient>
    <radialGradient
       cx="29.344931"
       cy="17.064077"
       r="9.1620579"
       fx="29.344931"
       fy="17.064077"
       id="radialGradient2239"
       xlink:href="#linearGradient3800-2"
       gradientUnits="userSpaceOnUse"
       gradientTransform="matrix(0.787998,0,0,0.787998,6.221198,3.617627)" />
    <linearGradient
       id="linearGradient3800-2">
      <stop
         id="stop3802-6"
         style="stop-color:#f4d9b1;stop-opacity:1"
         offset="0" />
      <stop
         id="stop3804-3"
         style="stop-color:#df9725;stop-opacity:1"
         offset="1" />
    </linearGradient>
    <linearGradient
       x1="20.661695"
       y1="35.817974"
       x2="22.626925"
       y2="36.217758"
       id="linearGradient2249"
       xlink:href="#linearGradient4356-8"
       gradientUnits="userSpaceOnUse"
       gradientTransform="matrix(2.8512357,0.5265033,-0.5265033,2.8512357,-7.64805,-26.094637)" />
    <linearGradient
       id="linearGradient26420">
      <stop
         id="stop26422"
         style="stop-color:#000000;stop-opacity:1"
         offset="0" />
      <stop
         id="stop26424"
         style="stop-color:#000000;stop-opacity:0"
         offset="1" />
    </linearGradient>
    <linearGradient
       x1="22.686766"
       y1="36.3904"
       x2="21.408455"
       y2="35.739632"
       id="linearGradient2246"
       xlink:href="#linearGradient4356-8"
       gradientUnits="userSpaceOnUse"
       gradientTransform="matrix(-2.8347379,0.6090996,0.6090996,2.8347379,134.07039,-29.845765)" />
    <linearGradient
       id="linearGradient26427">
      <stop
         id="stop26429"
         style="stop-color:#000000;stop-opacity:1"
         offset="0" />
      <stop
         id="stop26431"
         style="stop-color:#000000;stop-opacity:0"
         offset="1" />
    </linearGradient>
    <linearGradient
       inkscape:collect="always"
       xlink:href="#linearGradient2265"
       id="linearGradient27346"
       gradientUnits="userSpaceOnUse"
       gradientTransform="matrix(1.3654121,-0.02693772,0.02693772,1.3654121,9.2797065,57.514903)"
       x1="14.017542"
       y1="36.942543"
       x2="15.415793"
       y2="38.268368" />
    <linearGradient
       inkscape:collect="always"
       xlink:href="#linearGradient2257"
       id="linearGradient27350"
       gradientUnits="userSpaceOnUse"
       gradientTransform="matrix(1.5662434,-0.04099702,0.04099702,1.5662434,8.3929481,51.312607)"
       x1="12.004697"
       y1="35.688461"
       x2="10.650805"
       y2="33.194965" />
    <linearGradient
       inkscape:collect="always"
       xlink:href="#linearGradient3087"
       id="linearGradient27355"
       gradientUnits="userSpaceOnUse"
       gradientTransform="matrix(1.365678,0,0,1.365678,9.860176,58.914032)"
       x1="9.7503242"
       y1="32.28376"
       x2="16.915297"
       y2="39.443218" />
    <radialGradient
       inkscape:collect="always"
       xlink:href="#linearGradient3041"
       id="radialGradient27371"
       gradientUnits="userSpaceOnUse"
       gradientTransform="matrix(1.3000601,0,0,0.39921444,-6.4616482,101.71134)"
       cx="24.8125"
       cy="39.125"
       fx="24.8125"
       fy="39.125"
       r="17.6875" />
    <linearGradient
       id="linearGradient3396">
      <stop
         style="stop-color:#f9f9f9;stop-opacity:1;"
         offset="0"
         id="stop3398" />
      <stop
         style="stop-color:#ffffff;stop-opacity:1;"
         offset="1"
         id="stop3400" />
    </linearGradient>
    <linearGradient
       id="linearGradient3737">
      <stop
         style="stop-color:#76b3ff;stop-opacity:1;"
         offset="0"
         id="stop3739" />
      <stop
         style="stop-color:#76b3ff;stop-opacity:0;"
         offset="1"
         id="stop3741" />
    </linearGradient>
    <linearGradient
       id="linearGradient6699">
      <stop
         style="stop-color:#ffe400;stop-opacity:1;"
         offset="0"
         id="stop6701" />
      <stop
         style="stop-color:#b6a300;stop-opacity:1;"
         offset="1"
         id="stop6703" />
    </linearGradient>
    <linearGradient
       id="linearGradient6711">
      <stop
         style="stop-color:#5b8ccb;stop-opacity:1.0000000;"
         offset="0.0000000"
         id="stop6713" />
      <stop
         style="stop-color:#3465a4;stop-opacity:1.0000000;"
         offset="1.0000000"
         id="stop6715" />
    </linearGradient>
    <linearGradient
       id="linearGradient6719">
      <stop
         style="stop-color:#73d216;stop-opacity:1;"
         offset="0"
         id="stop6721" />
      <stop
         style="stop-color:#d5f7b3;stop-opacity:1.0000000;"
         offset="1.0000000"
         id="stop6723" />
    </linearGradient>
    <linearGradient
       y2="10.4377"
       x2="24.6035"
       y1="9.3432999"
       x1="24.6035"
       gradientUnits="userSpaceOnUse"
       id="aigrd6">
      <stop
         id="stop13035"
         style="stop-color:#ffe500;stop-opacity:1;"
         offset="0" />
      <stop
         id="stop13037"
         style="stop-color:#e5cf00;stop-opacity:1;"
         offset="1" />
    </linearGradient>
    <filter
       color-interpolation-filters="sRGB"
       inkscape:collect="always"
       id="filter28845"
       x="-0.013177074"
       width="1.0263541"
       y="-0.13433731"
       height="1.2686746">
      <feGaussianBlur
         inkscape:collect="always"
         stdDeviation="0.22389549"
         id="feGaussianBlur28847" />
    </filter>
    <linearGradient
       inkscape:collect="always"
       id="linearGradient10020">
      <stop
         style="stop-color:#ffffff;stop-opacity:1;"
         offset="0"
         id="stop10022" />
      <stop
         style="stop-color:#ffffff;stop-opacity:0;"
         offset="1"
         id="stop10024" />
    </linearGradient>
    <linearGradient
       id="linearGradient9214">
      <stop
         style="stop-color:#76b3ff;stop-opacity:1;"
         offset="0"
         id="stop9216" />
      <stop
         style="stop-color:#76b3ff;stop-opacity:0;"
         offset="1"
         id="stop9218" />
    </linearGradient>
    <linearGradient
       y2="11.0039"
       x2="20.945299"
       y1="25.4727"
       x1="27.294901"
       gradientUnits="userSpaceOnUse"
       id="aigrd5">
      <stop
         id="stop13012"
         style="stop-color:#ffffff;stop-opacity:1;"
         offset="0" />
      <stop
         id="stop13014"
         style="stop-color:#e1e1e1;stop-opacity:1;"
         offset="1" />
    </linearGradient>
    <filter
       color-interpolation-filters="sRGB"
       inkscape:collect="always"
       id="filter28829">
      <feGaussianBlur
         inkscape:collect="always"
         stdDeviation="0.31499992"
         id="feGaussianBlur28831" />
    </filter>
    <filter
       color-interpolation-filters="sRGB"
       inkscape:collect="always"
       id="filter29063">
      <feGaussianBlur
         inkscape:collect="always"
         stdDeviation="0.38420652"
         id="feGaussianBlur29065" />
    </filter>
    <filter
       color-interpolation-filters="sRGB"
       inkscape:collect="always"
       id="filter28987">
      <feGaussianBlur
         inkscape:collect="always"
         stdDeviation="0.08861"
         id="feGaussianBlur28989" />
    </filter>
    <filter
       color-interpolation-filters="sRGB"
       inkscape:collect="always"
       id="filter28891">
      <feGaussianBlur
         inkscape:collect="always"
         stdDeviation="0.08868"
         id="feGaussianBlur28893" />
    </filter>
    <radialGradient
       inkscape:collect="always"
       xlink:href="#aigrd7"
       id="radialGradient29031"
       gradientUnits="userSpaceOnUse"
       gradientTransform="matrix(3.502527,0,0,3.502527,-63.31273,-72.735485)"
       cx="24.774401"
       cy="30.991199"
       fx="24.774401"
       fy="30.991199"
       r="0.59020001" />
    <radialGradient
       gradientUnits="userSpaceOnUse"
       fy="30.991199"
       fx="24.774401"
       r="0.59020001"
       cy="30.991199"
       cx="24.774401"
       id="aigrd7">
      <stop
         id="stop13046"
         style="stop-color:#F0F0F0"
         offset="0" />
      <stop
         id="stop13048"
         style="stop-color:#848484"
         offset="1" />
    </radialGradient>
    <filter
       color-interpolation-filters="sRGB"
       inkscape:collect="always"
       id="filter28979">
      <feGaussianBlur
         inkscape:collect="always"
         stdDeviation="0.09358757"
         id="feGaussianBlur28981" />
    </filter>
    <radialGradient
       inkscape:collect="always"
       xlink:href="#aigrd7"
       id="radialGradient17801"
       gradientUnits="userSpaceOnUse"
       gradientTransform="matrix(3.502527,0,0,3.502527,-63.31273,-72.735485)"
       cx="24.774401"
       cy="30.991199"
       fx="24.774401"
       fy="30.991199"
       r="0.59020001" />
    <linearGradient
       inkscape:collect="always"
       xlink:href="#aigrd5"
       id="linearGradient17803"
       gradientUnits="userSpaceOnUse"
       gradientTransform="matrix(1.868867,0,0,1.5088,105.10768,280.39363)"
       x1="22.122427"
       y1="15.972877"
       x2="20.945299"
       y2="11.0039" />
    <radialGradient
       inkscape:collect="always"
       xlink:href="#linearGradient9214"
       id="radialGradient17805"
       gradientUnits="userSpaceOnUse"
       gradientTransform="matrix(1,0,0,0.181159,0,36.04743)"
       cx="26.162951"
       cy="44.022526"
       fx="26.162951"
       fy="44.022526"
       r="12.197592" />
    <linearGradient
       inkscape:collect="always"
       xlink:href="#aigrd6"
       id="linearGradient17809"
       gradientUnits="userSpaceOnUse"
       gradientTransform="matrix(1.905258,0,0,2.521777,102.678,277.16411)"
       x1="24.919374"
       y1="6.1478682"
       x2="24.919374"
       y2="7.4600263" />
    <linearGradient
       inkscape:collect="always"
       xlink:href="#linearGradient10020"
       id="linearGradient17841"
       gradientUnits="userSpaceOnUse"
       gradientTransform="matrix(4.8257578,0,0,4.8257578,27.509549,5.2046466)"
       x1="23.379572"
       y1="28.369167"
       x2="24.24518"
       y2="6.0000024" />
    <filter
       color-interpolation-filters="sRGB"
       inkscape:collect="always"
       id="filter3494"
       x="-0.25909144"
       width="1.5181829"
       y="-0.093183272"
       height="1.1863666">
      <feGaussianBlur
         inkscape:collect="always"
         stdDeviation="1.6166866"
         id="feGaussianBlur3496" />
    </filter>
    <filter
       color-interpolation-filters="sRGB"
       inkscape:collect="always"
       id="filter3283">
      <feGaussianBlur
         inkscape:collect="always"
         stdDeviation="0.14320409"
         id="feGaussianBlur3285" />
    </filter>
    <radialGradient
       inkscape:collect="always"
       xlink:href="#linearGradient3396-6"
       id="radialGradient3402"
       cx="39.653511"
       cy="34.821972"
       fx="39.653511"
       fy="34.821972"
       r="30.578215"
       gradientTransform="matrix(1.8474295,-1.1566283,0.5297723,0.8461812,-52.051276,44.26118)"
       gradientUnits="userSpaceOnUse" />
    <linearGradient
       id="linearGradient3396-6">
      <stop
         style="stop-color:#f9f9f9;stop-opacity:1;"
         offset="0"
         id="stop3398-1" />
      <stop
         style="stop-color:#ffffff;stop-opacity:1;"
         offset="1"
         id="stop3400-7" />
    </linearGradient>
    <filter
       color-interpolation-filters="sRGB"
       inkscape:collect="always"
       id="filter3372">
      <feGaussianBlur
         inkscape:collect="always"
         stdDeviation="0.71479376"
         id="feGaussianBlur3374" />
    </filter>
    <linearGradient
       inkscape:collect="always"
       xlink:href="#linearGradient3737-8"
       id="linearGradient3743"
       x1="46.899166"
       y1="36.622547"
       x2="43.207802"
       y2="26.9375"
       gradientUnits="userSpaceOnUse" />
    <linearGradient
       id="linearGradient3737-8">
      <stop
         style="stop-color:#76b3ff;stop-opacity:1;"
         offset="0"
         id="stop3739-2" />
      <stop
         style="stop-color:#76b3ff;stop-opacity:0;"
         offset="1"
         id="stop3741-9" />
    </linearGradient>
    <filter
       color-interpolation-filters="sRGB"
       inkscape:collect="always"
       id="filter3733"
       x="-0.039007049"
       width="1.0780141"
       y="-0.12992173"
       height="1.2598435">
      <feGaussianBlur
         inkscape:collect="always"
         stdDeviation="0.83231115"
         id="feGaussianBlur3735" />
    </filter>
    <filter
       color-interpolation-filters="sRGB"
       inkscape:collect="always"
       id="filter3745-6">
      <feGaussianBlur
         inkscape:collect="always"
         stdDeviation="0.15080121"
         id="feGaussianBlur3747-5" />
    </filter>
    <filter
       inkscape:collect="always"
       id="filter18001"
       x="-0.0095363583"
       width="1.0190727"
       y="-0.16001846"
       height="1.3200369">
      <feGaussianBlur
         inkscape:collect="always"
         stdDeviation="0.59264648"
         id="feGaussianBlur18003" />
    </filter>
    <filter
       inkscape:collect="always"
       id="filter18111"
       x="-0.11430928"
       width="1.2286186"
       y="-0.15616901"
       height="1.312338">
      <feGaussianBlur
         inkscape:collect="always"
         stdDeviation="4.62"
         id="feGaussianBlur18113" />
    </filter>
  </defs>
  <g
     id="layer1"
     style="display:inline"
     transform="translate(0,112)" />
  <g
     id="g18005"
     transform="translate(36,0)">
    <g
       style="filter:url(#filter29063)"
       id="g29033"
       transform="matrix(4.8257578,0,0,4.8257578,34.181787,4.5218983)">
      <path
         inkscape:connector-curvature="0"
         inkscape:r_cy="true"
         inkscape:r_cx="true"
         id="path10010"
         d="m 25.0994,37.763037 -1.982042,0 0,-11.621562 1.982042,0 0,11.620112 0,0.0014 z"
         style="fill:#a4a4a4;fill-rule:nonzero;stroke:#76b3ff;stroke-width:0.20722134;stroke-miterlimit:4;stroke-opacity:1"
         sodipodi:nodetypes="ccccccc" />
      <g
         transform="matrix(1.539016,0,0,1.539016,-14.281256,-10.915835)"
         style="fill:#a4a4a4;fill-rule:nonzero;stroke:#76b3ff;stroke-width:0.20722134;stroke-miterlimit:4;stroke-opacity:1;filter:url(#filter28987)"
         id="g13020"
         inkscape:r_cx="true"
         inkscape:r_cy="true">
        <path
           inkscape:connector-curvature="0"
           d="M 31.492,35.959 25.217,31.321 25.151306,31.665948 30.016,35.955 31.492,35.959 z"
           id="path13022"
           inkscape:r_cx="true"
           inkscape:r_cy="true"
           style="stroke:#76b3ff;stroke-width:0.20722134;stroke-opacity:1"
           sodipodi:nodetypes="ccccc" />
        <path
           inkscape:connector-curvature="0"
           d="M 18.408,35.959 24.683,31.321 24.63283,31.72338 19.883,35.955 18.408,35.959 z"
           id="path13024"
           inkscape:r_cx="true"
           inkscape:r_cy="true"
           style="stroke:#76b3ff;stroke-width:0.20722134;stroke-opacity:1"
           sodipodi:nodetypes="ccccc" />
      </g>
      <g
         inkscape:r_cy="true"
         inkscape:r_cx="true"
         id="g10004"
         style="fill:#a4a4a4;fill-rule:nonzero;stroke:none;filter:url(#filter28891)"
         transform="matrix(1.539016,0,0,1.539016,-14.281256,-10.915835)">
        <path
           inkscape:connector-curvature="0"
           inkscape:r_cy="true"
           inkscape:r_cx="true"
           id="path10006"
           d="m 30.015,35.956 1.477,0.003 -6.275,-4.638 -0.439,-0.014 5.238,4.648 -10e-4,0.001 z" />
        <path
           inkscape:connector-curvature="0"
           inkscape:r_cy="true"
           inkscape:r_cx="true"
           id="path10008"
           d="m 19.884,35.956 -1.476,0.003 6.275,-4.638 0.438,-0.014 -5.238,4.648 0.001,0.001 z" />
      </g>
      <path
         inkscape:connector-curvature="0"
         style="fill:url(#radialGradient17801);fill-rule:nonzero;stroke:#76b3ff;stroke-width:0.20722134;stroke-miterlimit:4;stroke-opacity:1;filter:url(#filter28979)"
         d="m 26.457053,36.64146 c 0,1.292433 -1.047259,2.339691 -2.339691,2.339691 -1.292433,0 -2.33969,-1.047258 -2.33969,-2.339691 0,-1.288928 1.047257,-2.339685 2.33969,-2.339685 1.292432,0 2.339691,1.050757 2.339691,2.339685 z"
         id="path13050"
         inkscape:r_cx="true"
         inkscape:r_cy="true" />
    </g>
    <path
       transform="matrix(4.8257578,0,0,4.8257578,-578.11654,-1396.2444)"
       inkscape:r_cy="true"
       inkscape:r_cx="true"
       id="path13016"
       d="m 168.99864,322.91013 -35.99999,0 0,-26.99999 35.99999,0 0,26.99999 0,0 z"
       style="fill:url(#linearGradient17803);fill-rule:nonzero;stroke:#76b3ff;stroke-width:0.31083202;stroke-linejoin:round;stroke-miterlimit:4;stroke-opacity:1;stroke-dasharray:none;filter:url(#filter28829)"
       inkscape:connector-curvature="0" />
    <path
       transform="matrix(8.4414761,0,0,7.0096448,-70.85392,-93.42173)"
       inkscape:r_cy="true"
       inkscape:r_cx="true"
       d="m 38.360542,44.022526 c 0,1.220388 -5.461048,2.209708 -12.197591,2.209708 -6.736544,0 -12.197592,-0.98932 -12.197592,-2.209708 0,-1.220389 5.461048,-2.209709 12.197592,-2.209709 6.736543,0 12.197591,0.98932 12.197591,2.209709 z"
       sodipodi:ry="2.2097087"
       sodipodi:rx="12.197592"
       sodipodi:cy="44.022526"
       sodipodi:cx="26.162951"
       id="path8339"
       style="opacity:0.60964912;color:#000000;fill:url(#radialGradient17805);fill-opacity:1;fill-rule:nonzero;stroke:none;stroke-width:0.5;marker:none;visibility:visible;display:inline;overflow:visible"
       sodipodi:type="arc" />
    <path
       style="fill:none;stroke:url(#linearGradient17841);stroke-width:1;stroke-linejoin:miter;stroke-miterlimit:4;stroke-opacity:1"
       d="m 232.52463,157.21602 -163.99614,0 0,-120.643948 163.99614,0 0,120.643948 0,0 z"
       id="path10018"
       inkscape:r_cx="true"
       inkscape:r_cy="true"
       inkscape:connector-curvature="0" />
    <path
       inkscape:r_cy="true"
       inkscape:r_cx="true"
       id="path13041"
       d="m 209.18037,33.375876 -143.064758,0 0,10.434833 C 74.181238,32.477224 209.18037,33.375876 209.18037,33.375876 z"
       style="opacity:0.15999995;fill:#000000;fill-rule:nonzero;stroke:none"
       inkscape:connector-curvature="0" />
    <rect
       transform="matrix(4.8257578,0,0,4.8257578,-578.11654,-1396.2444)"
       ry="1.9414761"
       rx="1.941476"
       inkscape:r_cy="true"
       inkscape:r_cx="true"
       y="291.91016"
       x="130.63896"
       height="4"
       width="40.779099"
       id="rect9222"
       style="color:#000000;fill:url(#linearGradient17809);fill-opacity:1;fill-rule:nonzero;stroke:#76b3ff;stroke-width:0.20722134;stroke-linecap:butt;stroke-linejoin:miter;stroke-miterlimit:4;stroke-opacity:1;stroke-dasharray:none;stroke-dashoffset:0;marker:none;visibility:visible;display:inline;overflow:visible;filter:url(#filter28845)" />
  </g>
  <text
     xml:space="preserve"
     style="font-size:56px;font-style:normal;font-variant:normal;font-weight:500;font-stretch:normal;text-align:center;line-height:125%;letter-spacing:0px;word-spacing:0px;text-anchor:middle;fill:#999999;fill-opacity:1;stroke:none;filter:url(#filter18001);font-family:arial;-inkscape-font-specification:arial"
     x="186"
     y="71"
     id="text17985"
     sodipodi:linespacing="125%"><tspan
       sodipodi:role="line"
       id="tspan17987"
       x="186"
       y="71"
       style="font-size:12px;fill:#999999;font-family:Arial Black;-inkscape-font-specification:Arial Black">SaaS / PaaS</tspan></text>
  <text
     sodipodi:linespacing="125%"
     id="text18021"
     y="54"
     x="127"
     style="font-size:56px;font-style:normal;font-variant:normal;font-weight:500;font-stretch:normal;text-align:center;line-height:125%;letter-spacing:0px;word-spacing:0px;text-anchor:middle;fill:#999999;fill-opacity:1;stroke:none;filter:url(#filter18001);font-family:arial;-inkscape-font-specification:arial"
     xml:space="preserve"><tspan
       style="font-size:12px;fill:#999999;font-family:Arial Black;-inkscape-font-specification:Arial Black"
       y="54"
       x="127"
       id="tspan18023"
       sodipodi:role="line">Ajax</tspan></text>
  <text
     sodipodi:linespacing="125%"
     id="text18025"
     y="52"
     x="231"
     style="font-size:56px;font-style:normal;font-variant:normal;font-weight:500;font-stretch:normal;text-align:center;line-height:125%;letter-spacing:0px;word-spacing:0px;text-anchor:middle;fill:#999999;fill-opacity:1;stroke:none;filter:url(#filter18001);font-family:arial;-inkscape-font-specification:arial"
     xml:space="preserve"><tspan
       style="font-size:12px;fill:#999999;font-family:Arial Black;-inkscape-font-specification:Arial Black"
       y="52"
       x="231"
       id="tspan18027"
       sodipodi:role="line">Web SSO</tspan></text>
  <text
     xml:space="preserve"
     style="font-size:56px;font-style:normal;font-variant:normal;font-weight:500;font-stretch:normal;text-align:center;line-height:125%;letter-spacing:0px;word-spacing:0px;text-anchor:middle;fill:#999999;fill-opacity:1;stroke:none;filter:url(#filter18001);font-family:arial;-inkscape-font-specification:arial"
     x="222"
     y="126"
     id="text18029"
     sodipodi:linespacing="125%"><tspan
       sodipodi:role="line"
       id="tspan18031"
       x="222"
       y="126"
       style="font-size:12px;fill:#999999;font-family:Arial Black;-inkscape-font-specification:Arial Black">JSON</tspan></text>
  <text
     sodipodi:linespacing="125%"
     id="text18033"
     y="148"
     x="141"
     style="font-size:56px;font-style:normal;font-variant:normal;font-weight:500;font-stretch:normal;text-align:center;line-height:125%;letter-spacing:0px;word-spacing:0px;text-anchor:middle;fill:#999999;fill-opacity:1;stroke:none;filter:url(#filter18001);font-family:arial;-inkscape-font-specification:arial"
     xml:space="preserve"><tspan
       style="font-size:12px;fill:#999999;font-family:Arial Black;-inkscape-font-specification:Arial Black"
       y="148"
       x="141"
       id="tspan18035"
       sodipodi:role="line">Mashups</tspan></text>
  <text
     xml:space="preserve"
     style="font-size:56px;font-style:normal;font-variant:normal;font-weight:500;font-stretch:normal;text-align:center;line-height:125%;letter-spacing:0px;word-spacing:0px;text-anchor:middle;fill:#999999;fill-opacity:1;stroke:none;filter:url(#filter18001);font-family:arial;-inkscape-font-specification:arial"
     x="225"
     y="102"
     id="text18037"
     sodipodi:linespacing="125%"><tspan
       sodipodi:role="line"
       id="tspan18039"
       x="225"
       y="102"
       style="font-size:12px;fill:#999999;font-family:Arial Black;-inkscape-font-specification:Arial Black">Mozilla XUL</tspan></text>
  <text
     sodipodi:linespacing="125%"
     id="text18041"
     y="149"
     x="226"
     style="font-size:56px;font-style:normal;font-variant:normal;font-weight:500;font-stretch:normal;text-align:center;line-height:125%;letter-spacing:0px;word-spacing:0px;text-anchor:middle;fill:#999999;fill-opacity:1;stroke:none;filter:url(#filter18001);font-family:arial;-inkscape-font-specification:arial"
     xml:space="preserve"><tspan
       style="font-size:12px;fill:#999999;font-family:Arial Black;-inkscape-font-specification:Arial Black"
       y="149"
       x="226"
       id="tspan18043"
       sodipodi:role="line">Adobe AIR</tspan></text>
  <text
     sodipodi:linespacing="125%"
     id="text18045"
     y="93"
     x="125"
     style="font-size:56px;font-style:normal;font-variant:normal;font-weight:500;font-stretch:normal;text-align:center;line-height:125%;letter-spacing:0px;word-spacing:0px;text-anchor:middle;fill:#999999;fill-opacity:1;stroke:none;filter:url(#filter18001);font-family:arial;-inkscape-font-specification:arial"
     xml:space="preserve"><tspan
       style="font-size:12px;fill:#999999;font-family:Arial Black;-inkscape-font-specification:Arial Black"
       y="93"
       x="125"
       id="tspan18047"
       sodipodi:role="line">IdM</tspan></text>
  <text
     xml:space="preserve"
     style="font-size:56px;font-style:normal;font-variant:normal;font-weight:500;font-stretch:normal;text-align:center;line-height:125%;letter-spacing:0px;word-spacing:0px;text-anchor:middle;fill:#999999;fill-opacity:1;stroke:none;filter:url(#filter18001);font-family:arial;-inkscape-font-specification:arial"
     x="140"
     y="118"
     id="text18049"
     sodipodi:linespacing="125%"><tspan
       sodipodi:role="line"
       id="tspan18051"
       x="140"
       y="118"
       style="font-size:12px;fill:#999999;font-family:Arial Black;-inkscape-font-specification:Arial Black">NoSQL</tspan></text>
  <path
     sodipodi:type="arc"
     style="opacity:0.51834866;color:#000000;fill:#ffffff;fill-opacity:1;fill-rule:nonzero;stroke:#ffffff;stroke-width:3;stroke-linecap:butt;stroke-linejoin:round;stroke-miterlimit:4;stroke-opacity:1;stroke-dasharray:none;stroke-dashoffset:0;marker:none;visibility:visible;display:inline;overflow:visible;filter:url(#filter18111);enable-background:accumulate"
     id="path18053"
     sodipodi:cx="151.5"
     sodipodi:cy="94.5"
     sodipodi:rx="48.5"
     sodipodi:ry="35.5"
     d="m 200,94.5 a 48.5,35.5 0 1 1 -97,0 48.5,35.5 0 1 1 97,0 z"
     transform="translate(35,3)" />
  <g
     transform="matrix(1.1848348,0,0,1.1848348,147.66231,59.636266)"
     id="g5649">
    <path
       style="opacity:0.98999999;fill:#76b3ff;fill-opacity:1;fill-rule:nonzero;stroke:#76b3ff;stroke-width:1.04993248;stroke-linecap:butt;stroke-linejoin:round;stroke-miterlimit:4;stroke-opacity:1;stroke-dasharray:none;stroke-dashoffset:0;marker:none;visibility:visible;display:inline;overflow:visible;filter:url(#filter3494);enable-background:accumulate"
       d="m 38.816882,23.837295 -18.31967,16.678025 3.680935,-0.01177 -9.395029,14.093621 18.31967,-16.678025 -3.680935,0.01177 9.395029,-14.093621 z"
       id="path3404"
       sodipodi:nodetypes="ccccccc"
       transform="matrix(1.4622766,-0.1856765,0.1436248,1.0841594,-14.021572,3.0506319)"
       inkscape:connector-curvature="0" />
    <path
       transform="matrix(1.4622766,-0.1856765,0.1436248,1.0841594,-14.021572,3.0506319)"
       sodipodi:nodetypes="ccccccc"
       id="path3276"
       d="m 38.816882,23.837295 -18.31967,16.678025 3.680935,-0.01177 -9.395029,14.093621 18.31967,-16.678025 -3.680935,0.01177 9.395029,-14.093621 z"
       style="opacity:0.98999999000000005;fill:#ffe500;fill-opacity:1;fill-rule:nonzero;stroke:#fafafa;stroke-width:1.39597553;stroke-linecap:butt;stroke-linejoin:round;stroke-miterlimit:4;stroke-opacity:1;stroke-dasharray:none;stroke-dashoffset:0;marker:none;visibility:visible;display:inline;overflow:visible;filter:url(#filter3283);enable-background:accumulate"
       inkscape:connector-curvature="0" />
    <path
       sodipodi:nodetypes="ccscsccscsscc"
       id="path3310"
       d="m 32.984746,2.487796 c -5.493411,0 -10.206539,3.292837 -12.33353,7.994857 -0.30329,-0.02929 -0.6153,-0.04875 -0.926233,-0.04875 -4.974112,0 -9.061146,3.853523 -9.457332,8.726094 -4.4751387,0.05323 -8.0923553,3.702181 -8.0923553,8.189854 0,4.5208 3.6690545,8.189854 8.1898543,8.189854 l 44.8492,0.0975 c 3.931129,0 7.117377,-3.186244 7.117373,-7.117373 0,-3.592358 -2.683309,-6.533998 -6.142391,-7.019874 0.719388,-1.405783 1.121229,-2.993261 1.12123,-4.679917 0,-5.688142 -4.597926,-10.286068 -10.286066,-10.286067 -1.327523,0 -2.587968,0.224649 -3.753683,0.682488 C 40.784758,4.313444 37.103566,2.487796 32.984746,2.487796 z"
       style="opacity:0.98999999;fill:url(#radialGradient3402);fill-opacity:1;fill-rule:nonzero;stroke:#76b3ff;stroke-width:0.84399951;stroke-linecap:butt;stroke-linejoin:round;stroke-miterlimit:4;stroke-opacity:1;stroke-dasharray:none;stroke-dashoffset:0;marker:none;visibility:visible;display:inline;overflow:visible;filter:url(#filter3372);enable-background:accumulate"
       inkscape:connector-curvature="0" />
    <path
       sodipodi:nodetypes="cscccscc"
       transform="matrix(1.0226429,0,0,1.051626,-0.18615174,-0.89067475)"
       id="path3335"
       d="m 56.579668,19.25 c -6.811137,4.035532 -15.354847,7.730061 -24.924907,10.591052 -7.470713,2.233387 -14.769017,3.721417 -21.436011,4.452114 0.648804,0.16498 12.255112,0.248876 12.959536,0.248876 L 55.339292,34.625 c 3.719401,10e-7 6.089354,-2.798579 6.08935,-6.277204 10e-7,-3.178848 -2.551901,-5.791948 -5.824681,-6.221896 0.483699,-0.884025 0.824095,-1.855685 0.975707,-2.8759 z"
       style="opacity:0.98999999;fill:url(#linearGradient3743);fill-opacity:1;fill-rule:nonzero;stroke:none;stroke-width:1;marker:none;visibility:visible;display:inline;overflow:visible;filter:url(#filter3733);enable-background:accumulate"
       inkscape:connector-curvature="0" />
    <text
       transform="matrix(0.81809702,0,0,1.3783442,0.4516993,0)"
       id="text2423"
       y="21.017321"
       x="15.322973"
       style="font-size:14.09020042px;font-style:normal;font-variant:normal;font-weight:normal;font-stretch:normal;text-align:start;text-anchor:start;fill:#000000;fill-opacity:1;stroke:none;filter:url(#filter3745-6);font-family:Times New Roman;-inkscape-font-specification:Times New Roman"
       xml:space="preserve"><tspan
         style="font-style:normal;font-variant:normal;font-weight:bold;font-stretch:normal;font-family:Sans;-inkscape-font-specification:Terminus Bold"
         y="21.017321"
         x="15.322973"
         id="tspan2425"
         sodipodi:role="line">{ldap}</tspan></text>
  </g>
</svg>
